Empire the same
DRI
	Bryan Dwyer +17165310063
	Jamie Mckay+17164789419
	John Collins+17162600529
	Neil Seifert +17163595739
	Chuck Robinson7162551056
	Jason Etheridge +17166289559
	Tim Gelnett +17169891180
	Spence 9409481
	Scott Hasley 9985723
	Johnny O Brien+17164712105
JPB
	Jim Balcom Sr.      716 471-2145      jfbalcom@yahoo.com
	Chris Balcom         716 479-0420     cfbalcom1@yahoo.com
	Troy Barnes          716 946-4666      troydavidbarnes@gmail.com
	Tom Budde Sr.      585 281-3427      buddeman006@gmail.com     
	Charlie Budde
	Jack Florio            716 515-8750      micrographics@verizon.com
	Sam Gugliuzza      716 583-7784
	Denny Hayden      716 622-8234      rdennishayden@aol.com
	Bill Muchow           716 638-7285     bmildone@aol.com
	Shawn Murphy      716 417-8894
	Jerry O'Brien         716 523-9757     doubleobrien@yahoo.com        
	Scott Weatherwax  716 254-0039     waxywins63@rochester.rr.com
Omega 1
	Brad Priebe
	Jason Priebe
	Dave Milliman
	Steve butcher
	Mike Florio
	Buddy Cadell
Omega 2
	Ed Wright
	Boz 
	Will Merango
	Jason Degnan
	Jake Riesabal
	Joe Riesabal
	Scott Cercone
	Paul Laforce

WNY
Lake Ontario Same
Wendel
Reids
Volland same
Nodine same
GoodOldBoys	players with scores from last year
Scapellitis
